{
  "images" : [
    {
      "idiom" : "universal"
    },
    {
      "idiom" : "universal",
      "scale" : "1x",
      "filename" : "jack_of_clubs.jpg"
    },
    {
      "idiom" : "universal",
      "scale" : "2x",
      "filename" : "jack_of_clubs@2x.jpg"
    },
    {
      "idiom" : "universal",
      "scale" : "3x"
    }
  ],
  "info" : {
    "version" : 1,
    "author" : "xcode"
  }
}